[
  {"id": "01","name": "Presencial en sede"},
  {"id": "02","name": "Telefónica"},
  {"id": "03","name": "Visita"},
  {"id": "04","name": "Acompañamiento al solicitante del servicio"},
  {"id": "05","name": "Telemática"}
]
